1 10 20
100 200 125
201 210 89
900 1000 174
676415 739992 504
365517 353800 410
408892 426840 449
989211 754992 525
593060 242294 470
571089 74311 470
642721 140658 509
465749 429348 444
284433 964154 525
353846 36746 443
339931 546793 470
295341 103286 443
669275 966145 525
483398 881058 525
289291 115192 443
694777 186537 509
441828 384339 449
698104 841724 525
961980 969529 414
888714 880248 445
65145 95296 351
873104 514412 525
355707 577603 470
13534 498038 449
831240 526653 509
225182 296412 443
745398 861702 525
324684 990142 525
946871 248663 525
732242 817836 468
323538 753859 509
483655 957131 525
965752 693388 525
220823 521705 470
979113 100942 525
459229 788347 509
493188 913502 525
405057 871342 525
634827 311703 509
648853 960600 525
540493 328394 470
940511 142066 525
813626 724659 468
940590 342616 525
626364 770742 504
890690 77697 525
40864 74763 340
124856 293100 443
888240 458121 525
217066 119888 386
509870 784021 509
748588 298553 509
640962 570812 509
462240 631 449
835227 4145 509
719562 52361 509
458394 846561 525
744452 64949 509
207538 790959 509
184044 168029 365
903757 534384 525
636281 509734 509
737285 195308 509
127862 125633 331
395023 786707 509
742996 255182 509
984160 506455 525
156057 537724 470
295068 927102 525
577367 301851 470
474718 925156 525
534109 887646 525
666444 6106 509
283667 858573 525
159096 246596 443
984331 347854 525
965311 202382 525
437406 494105 444
207166 648671 509
36176 990344 525
689517 733071 504
167582 597528 470
294788 382223 441
691581 599620 509
612382 464474 470
921392 74184 525
549983 154462 470
299031 552623 470
315575 703123 509
192882 380215 443
672684 601947 509
340479 760349 509
917225 5874 525
43432 928578 525
206527 58620 383
581652 934849 525
542127 190251 470
974531 742108 525
132227 512765 470
581004 103590 470
528981 706071 509
301970 14740 443
839029 560900 525
150154 698477 509
901789 805923 525
369962 572647 470
233544 636827 509
253300 414966 449
894841 312367 525
638809 285226 509
364904 799921 509
967851 607296 525
924335 472552 525
724059 721280 411
944090 310231 525
380426 750828 509
565180 782533 509
169264 851364 525
760114 75607 509
918536 206049 525
611112 574103 434
488956 882543 525
417989 666536 509
187420 969625 525
689364 600089 509
676415 739992 504
365517 353800 410
408892 426840 449
989211 754992 525
593060 242294 470
571089 74311 470
642721 140658 509
465749 429348 444
284433 964154 525
353846 36746 443
339931 546793 470
295341 103286 443
669275 966145 525
483398 881058 525
289291 115192 443
694777 186537 509
441828 384339 449
698104 841724 525
961980 969529 414
888714 880248 445
65145 95296 351
873104 514412 525
355707 577603 470
13534 498038 449
831240 526653 509
225182 296412 443
745398 861702 525
324684 990142 525
946871 248663 525
732242 817836 468
323538 753859 509
483655 957131 525
965752 693388 525
220823 521705 470
979113 100942 525
459229 788347 509
493188 913502 525
405057 871342 525
634827 311703 509
648853 960600 525
540493 328394 470
940511 142066 525
813626 724659 468
940590 342616 525
626364 770742 504
890690 77697 525
40864 74763 340
124856 293100 443
888240 458121 525
217066 119888 386
509870 784021 509
748588 298553 509
640962 570812 509
462240 631 449
835227 4145 509
719562 52361 509
458394 846561 525
744452 64949 509
207538 790959 509
184044 168029 365
903757 534384 525
636281 509734 509
737285 195308 509
127862 125633 331
395023 786707 509
742996 255182 509
984160 506455 525
156057 537724 470
295068 927102 525
577367 301851 470
474718 925156 525
534109 887646 525
666444 6106 509
283667 858573 525
159096 246596 443
984331 347854 525
965311 202382 525
437406 494105 444
207166 648671 509
36176 990344 525
689517 733071 504
167582 597528 470
294788 382223 441
691581 599620 509
612382 464474 470
921392 74184 525
549983 154462 470
299031 552623 470
315575 703123 509
192882 380215 443
672684 601947 509
340479 760349 509
917225 5874 525
43432 928578 525
206527 58620 383
581652 934849 525
542127 190251 470
974531 742108 525
132227 512765 470
581004 103590 470
528981 706071 509
301970 14740 443
839029 560900 525
150154 698477 509
901789 805923 525
369962 572647 470
233544 636827 509
253300 414966 449
894841 312367 525
638809 285226 509
364904 799921 509
967851 607296 525
924335 472552 525
724059 721280 411
944090 310231 525
380426 750828 509
565180 782533 509
169264 851364 525
760114 75607 509
918536 206049 525
611112 574103 434
488956 882543 525
417989 666536 509
187420 969625 525
689364 600089 509
